{
  "name": "BigStars",
  "author": "JakeV",
  "description": "star big",
  "version": "1.0",
  "starmade_version": "0.202.*",
  "client_mod": false,
  "server_mod": false,
  "main_class": "me.jakev.bigstars.BigStars",
  "smd_resource_id": 99999,
  "dependencies": [
    -1
  ],
  "core_mod": false,
  "requires_class_resize": false
}