{
  "name": "UploadMyCrashes",
  "author": "JakeV",
  "description": "Uploads log files to server",
  "version": "1.0",
  "starmade_version": "0.202.*",
  "client_mod": false,
  "server_mod": false,
  "main_class": "me.jakev.uploadmycrashes.UpMain",
  "smd_resource_id": 9999,
  "dependencies": [
    -1
  ],
  "core_mod": false,
  "requires_class_resize": false
}