{
  "name": "NoStationDecay",
  "author": "JakeV",
  "description": "No decay",
  "version": "0.1",
  "starmade_version": "0.202.120",
  "client_mod": false,
  "server_mod": false,
  "main_class": "me.jakev.nostationdecay.NoStationDecay",
  "smd_resource_id": 8296,
  "dependencies": [
    -1
  ],
  "core_mod": false,
  "requires_class_resize": false
}